Lab6/Lab6_revised/Lab6_revised.sim/sim_1/behav/xsim/simulate.log
Vivado Simulator 2019.1
Time resolution is 1 ps
 Block Memory Generator module loading initial data...
 Block Memory Generator data initialization complete.
Block Memory Generator module bram_tb.DUT.ROM.inst.native_mem_module.blk_mem_gen_v8_4_3_inst is using a behavioral model for simulation which will not precisely model memory collision behavior.
Block Memory Generator module bram_tb.DUT.RAM.inst.native_mem_module.blk_mem_gen_v8_4_3_inst is using a behavioral model for simulation which will not precisely model memory collision behavior.
en_rom : 1, addr_rom : 1023, clka: 1, dout_rom :  32
en_rom : 1, addr_rom : 1022, clka: 1, dout_rom :  41
en_rom : 1, addr_rom : 1021, clka: 1, dout_rom : 151
en_rom : 1, addr_rom : 1020, clka: 1, dout_rom : 243
en_rom : 1, addr_rom : 1019, clka: 1, dout_rom : 161
en_rom : 1, addr_rom : 1018, clka: 1, dout_rom : 123
en_rom : 1, addr_rom : 1017, clka: 1, dout_rom : 207
en_rom : 1, addr_rom : 1016, clka: 1, dout_rom : 209
en_rom : 1, addr_rom : 1015, clka: 1, dout_rom :   2
en_rom : 1, addr_rom : 1014, clka: 1, dout_rom : 122
en_rom : 1, addr_rom : 1013, clka: 1, dout_rom :  35
en_rom : 1, addr_rom : 1012, clka: 1, dout_rom : 121
en_rom : 1, addr_rom : 1011, clka: 1, dout_rom :  56
en_rom : 1, addr_rom : 1010, clka: 1, dout_rom :  42
en_rom : 1, addr_rom : 1009, clka: 1, dout_rom : 191
en_rom : 1, addr_rom : 1008, clka: 1, dout_rom : 203
en_rom : 1, addr_rom : 1007, clka: 1, dout_rom : 108
en_rom : 1, addr_rom : 1006, clka: 1, dout_rom :  42
en_rom : 1, addr_rom : 1005, clka: 1, dout_rom :  41
en_rom : 1, addr_rom : 1004, clka: 1, dout_rom : 143
en_rom : 1, addr_rom : 1003, clka: 1, dout_rom :  61
en_rom : 1, addr_rom : 1002, clka: 1, dout_rom : 174
en_rom : 1, addr_rom : 1001, clka: 1, dout_rom :  97
en_rom : 1, addr_rom : 1000, clka: 1, dout_rom : 182
en_rom : 1, addr_rom :  999, clka: 1, dout_rom :  29
en_rom : 1, addr_rom :  998, clka: 1, dout_rom : 186
en_rom : 1, addr_rom :  997, clka: 1, dout_rom : 230
en_rom : 1, addr_rom :  996, clka: 1, dout_rom : 176
en_rom : 1, addr_rom :  995, clka: 1, dout_rom : 214
en_rom : 1, addr_rom :  994, clka: 1, dout_rom : 138
en_rom : 1, addr_rom :  993, clka: 1, dout_rom :  13
en_rom : 1, addr_rom :  992, clka: 1, dout_rom : 118
en_rom : 1, addr_rom :  991, clka: 1, dout_rom : 237
en_rom : 1, addr_rom :  990, clka: 1, dout_rom : 169
en_rom : 1, addr_rom :  989, clka: 1, dout_rom : 216
en_rom : 1, addr_rom :  988, clka: 1, dout_rom :  53
en_rom : 1, addr_rom :  987, clka: 1, dout_rom :  79
en_rom : 1, addr_rom :  986, clka: 1, dout_rom : 115
en_rom : 1, addr_rom :  985, clka: 1, dout_rom :   1
en_rom : 1, addr_rom :  984, clka: 1, dout_rom :  29
en_rom : 1, addr_rom :  983, clka: 1, dout_rom : 197
en_rom : 1, addr_rom :  982, clka: 1, dout_rom : 129
en_rom : 1, addr_rom :  981, clka: 1, dout_rom : 166
en_rom : 1, addr_rom :  980, clka: 1, dout_rom : 162
en_rom : 1, addr_rom :  979, clka: 1, dout_rom :  38
en_rom : 1, addr_rom :  978, clka: 1, dout_rom :  61
en_rom : 1, addr_rom :  977, clka: 1, dout_rom : 215
en_rom : 1, addr_rom :  976, clka: 1, dout_rom : 146
en_rom : 1, addr_rom :  975, clka: 1, dout_rom :  13
en_rom : 1, addr_rom :  974, clka: 1, dout_rom :  91
en_rom : 1, addr_rom :  973, clka: 1, dout_rom : 201
en_rom : 1, addr_rom :  972, clka: 1, dout_rom :  82
en_rom : 1, addr_rom :  971, clka: 1, dout_rom : 252
en_rom : 1, addr_rom :  970, clka: 1, dout_rom : 134
en_rom : 1, addr_rom :  969, clka: 1, dout_rom : 185
en_rom : 1, addr_rom :  968, clka: 1, dout_rom :  85
en_rom : 1, addr_rom :  967, clka: 1, dout_rom :  26
en_rom : 1, addr_rom :  966, clka: 1, dout_rom : 245
en_rom : 1, addr_rom :  965, clka: 1, dout_rom :  25
en_rom : 1, addr_rom :  964, clka: 1, dout_rom : 253
en_rom : 1, addr_rom :  963, clka: 1, dout_rom : 184
en_rom : 1, addr_rom :  962, clka: 1, dout_rom : 140
en_rom : 1, addr_rom :  961, clka: 1, dout_rom :  61
en_rom : 1, addr_rom :  960, clka: 1, dout_rom : 162
en_rom : 1, addr_rom :  959, clka: 1, dout_rom : 236
en_rom : 1, addr_rom :  958, clka: 1, dout_rom :  50
en_rom : 1, addr_rom :  957, clka: 1, dout_rom :  20
en_rom : 1, addr_rom :  956, clka: 1, dout_rom : 197
en_rom : 1, addr_rom :  955, clka: 1, dout_rom : 158
en_rom : 1, addr_rom :  954, clka: 1, dout_rom : 142
en_rom : 1, addr_rom :  953, clka: 1, dout_rom :   3
en_rom : 1, addr_rom :  952, clka: 1, dout_rom : 102
en_rom : 1, addr_rom :  951, clka: 1, dout_rom : 188
en_rom : 1, addr_rom :  950, clka: 1, dout_rom :  12
en_rom : 1, addr_rom :  949, clka: 1, dout_rom : 138
en_rom : 1, addr_rom :  948, clka: 1, dout_rom : 141
en_rom : 1, addr_rom :  947, clka: 1, dout_rom : 100
en_rom : 1, addr_rom :  946, clka: 1, dout_rom :  99
en_rom : 1, addr_rom :  945, clka: 1, dout_rom : 206
en_rom : 1, addr_rom :  944, clka: 1, dout_rom :  74
en_rom : 1, addr_rom :  943, clka: 1, dout_rom :  94
en_rom : 1, addr_rom :  942, clka: 1, dout_rom : 173
en_rom : 1, addr_rom :  941, clka: 1, dout_rom :  78
en_rom : 1, addr_rom :  940, clka: 1, dout_rom :   7
en_rom : 1, addr_rom :  939, clka: 1, dout_rom :  19
en_rom : 1, addr_rom :  938, clka: 1, dout_rom : 226
en_rom : 1, addr_rom :  937, clka: 1, dout_rom :  28
en_rom : 1, addr_rom :  936, clka: 1, dout_rom : 117
en_rom : 1, addr_rom :  935, clka: 1, dout_rom : 213
en_rom : 1, addr_rom :  934, clka: 1, dout_rom : 246
en_rom : 1, addr_rom :  933, clka: 1, dout_rom : 130
en_rom : 1, addr_rom :  932, clka: 1, dout_rom :  54
en_rom : 1, addr_rom :  931, clka: 1, dout_rom :  10
en_rom : 1, addr_rom :  930, clka: 1, dout_rom :  26
en_rom : 1, addr_rom :  929, clka: 1, dout_rom : 117
en_rom : 1, addr_rom :  928, clka: 1, dout_rom :   2
en_rom : 1, addr_rom :  927, clka: 1, dout_rom : 237
en_rom : 1, addr_rom :  926, clka: 1, dout_rom :  33
en_rom : 1, addr_rom :  925, clka: 1, dout_rom :  51
en_rom : 1, addr_rom :  924, clka: 1, dout_rom : 221
en_rom : 1, addr_rom :  923, clka: 1, dout_rom :  67
en_rom : 1, addr_rom :  922, clka: 1, dout_rom : 227
en_rom : 1, addr_rom :  921, clka: 1, dout_rom : 123
en_rom : 1, addr_rom :  920, clka: 1, dout_rom : 217
en_rom : 1, addr_rom :  919, clka: 1, dout_rom :  71
en_rom : 1, addr_rom :  918, clka: 1, dout_rom :  41
en_rom : 1, addr_rom :  917, clka: 1, dout_rom : 234
en_rom : 1, addr_rom :  916, clka: 1, dout_rom :  50
en_rom : 1, addr_rom :  915, clka: 1, dout_rom :  69
en_rom : 1, addr_rom :  914, clka: 1, dout_rom : 232
en_rom : 1, addr_rom :  913, clka: 1, dout_rom :  71
en_rom : 1, addr_rom :  912, clka: 1, dout_rom : 213
en_rom : 1, addr_rom :  911, clka: 1, dout_rom : 159
en_rom : 1, addr_rom :  910, clka: 1, dout_rom :  52
en_rom : 1, addr_rom :  909, clka: 1, dout_rom : 231
en_rom : 1, addr_rom :  908, clka: 1, dout_rom :  24
en_rom : 1, addr_rom :  907, clka: 1, dout_rom : 201
en_rom : 1, addr_rom :  906, clka: 1, dout_rom :  11
en_rom : 1, addr_rom :  905, clka: 1, dout_rom :  43
en_rom : 1, addr_rom :  904, clka: 1, dout_rom :  59
en_rom : 1, addr_rom :  903, clka: 1, dout_rom : 119
en_rom : 1, addr_rom :  902, clka: 1, dout_rom :  54
en_rom : 1, addr_rom :  901, clka: 1, dout_rom :  99
en_rom : 1, addr_rom :  900, clka: 1, dout_rom : 184
en_rom : 1, addr_rom :  899, clka: 1, dout_rom : 216
en_rom : 1, addr_rom :  898, clka: 1, dout_rom :   9
en_rom : 1, addr_rom :  897, clka: 1, dout_rom : 200
en_rom : 1, addr_rom :  896, clka: 1, dout_rom :  58
en_rom : 1, addr_rom :  895, clka: 1, dout_rom : 229
en_rom : 1, addr_rom :  894, clka: 1, dout_rom : 191
en_rom : 1, addr_rom :  893, clka: 1, dout_rom : 245
en_rom : 1, addr_rom :  892, clka: 1, dout_rom :  36
en_rom : 1, addr_rom :  891, clka: 1, dout_rom : 137
en_rom : 1, addr_rom :  890, clka: 1, dout_rom : 221
en_rom : 1, addr_rom :  889, clka: 1, dout_rom : 101
en_rom : 1, addr_rom :  888, clka: 1, dout_rom : 231
en_rom : 1, addr_rom :  887, clka: 1, dout_rom :   6
en_rom : 1, addr_rom :  886, clka: 1, dout_rom :  11
en_rom : 1, addr_rom :  885, clka: 1, dout_rom : 175
en_rom : 1, addr_rom :  884, clka: 1, dout_rom :  18
en_rom : 1, addr_rom :  883, clka: 1, dout_rom : 110
en_rom : 1, addr_rom :  882, clka: 1, dout_rom :  81
en_rom : 1, addr_rom :  881, clka: 1, dout_rom : 117
en_rom : 1, addr_rom :  880, clka: 1, dout_rom : 105
en_rom : 1, addr_rom :  879, clka: 1, dout_rom : 112
en_rom : 1, addr_rom :  878, clka: 1, dout_rom : 159
en_rom : 1, addr_rom :  877, clka: 1, dout_rom : 139
en_rom : 1, addr_rom :  876, clka: 1, dout_rom :   0
en_rom : 1, addr_rom :  875, clka: 1, dout_rom :   8
en_rom : 1, addr_rom :  874, clka: 1, dout_rom : 148
en_rom : 1, addr_rom :  873, clka: 1, dout_rom : 254
en_rom : 1, addr_rom :  872, clka: 1, dout_rom : 236
en_rom : 1, addr_rom :  871, clka: 1, dout_rom :  85
en_rom : 1, addr_rom :  870, clka: 1, dout_rom :  90
en_rom : 1, addr_rom :  869, clka: 1, dout_rom : 135
en_rom : 1, addr_rom :  868, clka: 1, dout_rom : 222
en_rom : 1, addr_rom :  867, clka: 1, dout_rom :  31
en_rom : 1, addr_rom :  866, clka: 1, dout_rom :  97
en_rom : 1, addr_rom :  865, clka: 1, dout_rom : 191
en_rom : 1, addr_rom :  864, clka: 1, dout_rom : 240
en_rom : 1, addr_rom :  863, clka: 1, dout_rom : 150
en_rom : 1, addr_rom :  862, clka: 1, dout_rom :  87
en_rom : 1, addr_rom :  861, clka: 1, dout_rom : 201
en_rom : 1, addr_rom :  860, clka: 1, dout_rom : 243
en_rom : 1, addr_rom :  859, clka: 1, dout_rom :  35
en_rom : 1, addr_rom :  858, clka: 1, dout_rom : 203
en_rom : 1, addr_rom :  857, clka: 1, dout_rom : 249
en_rom : 1, addr_rom :  856, clka: 1, dout_rom : 211
en_rom : 1, addr_rom :  855, clka: 1, dout_rom : 169
en_rom : 1, addr_rom :  854, clka: 1, dout_rom : 179
en_rom : 1, addr_rom :  853, clka: 1, dout_rom :  72
en_rom : 1, addr_rom :  852, clka: 1, dout_rom : 119
en_rom : 1, addr_rom :  851, clka: 1, dout_rom :  76
en_rom : 1, addr_rom :  850, clka: 1, dout_rom : 223
en_rom : 1, addr_rom :  849, clka: 1, dout_rom : 142
en_rom : 1, addr_rom :  848, clka: 1, dout_rom :  84
en_rom : 1, addr_rom :  847, clka: 1, dout_rom :  59
en_rom : 1, addr_rom :  846, clka: 1, dout_rom : 231
en_rom : 1, addr_rom :  845, clka: 1, dout_rom : 142
en_rom : 1, addr_rom :  844, clka: 1, dout_rom :  83
en_rom : 1, addr_rom :  843, clka: 1, dout_rom : 187
en_rom : 1, addr_rom :  842, clka: 1, dout_rom : 189
en_rom : 1, addr_rom :  841, clka: 1, dout_rom : 198
en_rom : 1, addr_rom :  840, clka: 1, dout_rom :   5
en_rom : 1, addr_rom :  839, clka: 1, dout_rom : 251
en_rom : 1, addr_rom :  838, clka: 1, dout_rom : 209
en_rom : 1, addr_rom :  837, clka: 1, dout_rom :  24
en_rom : 1, addr_rom :  836, clka: 1, dout_rom : 161
en_rom : 1, addr_rom :  835, clka: 1, dout_rom : 163
en_rom : 1, addr_rom :  834, clka: 1, dout_rom : 161
en_rom : 1, addr_rom :  833, clka: 1, dout_rom : 204
en_rom : 1, addr_rom :  832, clka: 1, dout_rom :  76
en_rom : 1, addr_rom :  831, clka: 1, dout_rom :  19
en_rom : 1, addr_rom :  830, clka: 1, dout_rom : 199
en_rom : 1, addr_rom :  829, clka: 1, dout_rom :  63
en_rom : 1, addr_rom :  828, clka: 1, dout_rom :  96
en_rom : 1, addr_rom :  827, clka: 1, dout_rom :  13
en_rom : 1, addr_rom :  826, clka: 1, dout_rom : 106
en_rom : 1, addr_rom :  825, clka: 1, dout_rom :  39
en_rom : 1, addr_rom :  824, clka: 1, dout_rom : 252
en_rom : 1, addr_rom :  823, clka: 1, dout_rom : 224
en_rom : 1, addr_rom :  822, clka: 1, dout_rom :  65
en_rom : 1, addr_rom :  821, clka: 1, dout_rom :  90
en_rom : 1, addr_rom :  820, clka: 1, dout_rom :  50
en_rom : 1, addr_rom :  819, clka: 1, dout_rom : 102
en_rom : 1, addr_rom :  818, clka: 1, dout_rom : 162
en_rom : 1, addr_rom :  817, clka: 1, dout_rom : 107
en_rom : 1, addr_rom :  816, clka: 1, dout_rom :  91
en_rom : 1, addr_rom :  815, clka: 1, dout_rom :  43
en_rom : 1, addr_rom :  814, clka: 1, dout_rom :  15
en_rom : 1, addr_rom :  813, clka: 1, dout_rom : 244
en_rom : 1, addr_rom :  812, clka: 1, dout_rom : 243
en_rom : 1, addr_rom :  811, clka: 1, dout_rom :  57
en_rom : 1, addr_rom :  810, clka: 1, dout_rom : 156
en_rom : 1, addr_rom :  809, clka: 1, dout_rom :  37
en_rom : 1, addr_rom :  808, clka: 1, dout_rom :  53
en_rom : 1, addr_rom :  807, clka: 1, dout_rom : 205
en_rom : 1, addr_rom :  806, clka: 1, dout_rom : 201
en_rom : 1, addr_rom :  805, clka: 1, dout_rom :  74
en_rom : 1, addr_rom :  804, clka: 1, dout_rom :  89
en_rom : 1, addr_rom :  803, clka: 1, dout_rom :  42
en_rom : 1, addr_rom :  802, clka: 1, dout_rom : 117
en_rom : 1, addr_rom :  801, clka: 1, dout_rom : 151
en_rom : 1, addr_rom :  800, clka: 1, dout_rom :   1
en_rom : 1, addr_rom :  799, clka: 1, dout_rom : 113
en_rom : 1, addr_rom :  798, clka: 1, dout_rom : 152
en_rom : 1, addr_rom :  797, clka: 1, dout_rom :  28
en_rom : 1, addr_rom :  796, clka: 1, dout_rom : 211
en_rom : 1, addr_rom :  795, clka: 1, dout_rom :  18
en_rom : 1, addr_rom :  794, clka: 1, dout_rom : 207
en_rom : 1, addr_rom :  793, clka: 1, dout_rom :   0
en_rom : 1, addr_rom :  792, clka: 1, dout_rom : 240
en_rom : 1, addr_rom :  791, clka: 1, dout_rom : 246
en_rom : 1, addr_rom :  790, clka: 1, dout_rom : 108
en_rom : 1, addr_rom :  789, clka: 1, dout_rom : 242
en_rom : 1, addr_rom :  788, clka: 1, dout_rom : 107
en_rom : 1, addr_rom :  787, clka: 1, dout_rom :  48
en_rom : 1, addr_rom :  786, clka: 1, dout_rom :  13
en_rom : 1, addr_rom :  785, clka: 1, dout_rom : 218
en_rom : 1, addr_rom :  784, clka: 1, dout_rom : 129
en_rom : 1, addr_rom :  783, clka: 1, dout_rom : 128
en_rom : 1, addr_rom :  782, clka: 1, dout_rom : 179
en_rom : 1, addr_rom :  781, clka: 1, dout_rom : 103
en_rom : 1, addr_rom :  780, clka: 1, dout_rom : 148
en_rom : 1, addr_rom :  779, clka: 1, dout_rom : 184
en_rom : 1, addr_rom :  778, clka: 1, dout_rom :  62
en_rom : 1, addr_rom :  777, clka: 1, dout_rom : 219
en_rom : 1, addr_rom :  776, clka: 1, dout_rom : 214
en_rom : 1, addr_rom :  775, clka: 1, dout_rom :  58
en_rom : 1, addr_rom :  774, clka: 1, dout_rom : 105
en_rom : 1, addr_rom :  773, clka: 1, dout_rom : 215
en_rom : 1, addr_rom :  772, clka: 1, dout_rom :  82
en_rom : 1, addr_rom :  771, clka: 1, dout_rom :  59
en_rom : 1, addr_rom :  770, clka: 1, dout_rom : 170
en_rom : 1, addr_rom :  769, clka: 1, dout_rom : 252
en_rom : 1, addr_rom :  768, clka: 1, dout_rom :  78
en_rom : 1, addr_rom :  767, clka: 1, dout_rom : 127
en_rom : 1, addr_rom :  766, clka: 1, dout_rom : 227
en_rom : 1, addr_rom :  765, clka: 1, dout_rom : 149
en_rom : 1, addr_rom :  764, clka: 1, dout_rom : 105
en_rom : 1, addr_rom :  763, clka: 1, dout_rom : 112
en_rom : 1, addr_rom :  762, clka: 1, dout_rom : 200
en_rom : 1, addr_rom :  761, clka: 1, dout_rom : 118
en_rom : 1, addr_rom :  760, clka: 1, dout_rom :  66
en_rom : 1, addr_rom :  759, clka: 1, dout_rom : 190
en_rom : 1, addr_rom :  758, clka: 1, dout_rom :  38
en_rom : 1, addr_rom :  757, clka: 1, dout_rom : 187
en_rom : 1, addr_rom :  756, clka: 1, dout_rom :  21
en_rom : 1, addr_rom :  755, clka: 1, dout_rom :  67
en_rom : 1, addr_rom :  754, clka: 1, dout_rom : 251
en_rom : 1, addr_rom :  753, clka: 1, dout_rom : 103
en_rom : 1, addr_rom :  752, clka: 1, dout_rom : 111
en_rom : 1, addr_rom :  751, clka: 1, dout_rom : 162
en_rom : 1, addr_rom :  750, clka: 1, dout_rom : 128
en_rom : 1, addr_rom :  749, clka: 1, dout_rom :  66
en_rom : 1, addr_rom :  748, clka: 1, dout_rom : 198
en_rom : 1, addr_rom :  747, clka: 1, dout_rom : 147
en_rom : 1, addr_rom :  746, clka: 1, dout_rom : 210
en_rom : 1, addr_rom :  745, clka: 1, dout_rom :  37
en_rom : 1, addr_rom :  744, clka: 1, dout_rom : 211
en_rom : 1, addr_rom :  743, clka: 1, dout_rom : 197
en_rom : 1, addr_rom :  742, clka: 1, dout_rom :  87
en_rom : 1, addr_rom :  741, clka: 1, dout_rom :  36
en_rom : 1, addr_rom :  740, clka: 1, dout_rom : 216
en_rom : 1, addr_rom :  739, clka: 1, dout_rom :  89
en_rom : 1, addr_rom :  738, clka: 1, dout_rom :  20
en_rom : 1, addr_rom :  737, clka: 1, dout_rom :  20
en_rom : 1, addr_rom :  736, clka: 1, dout_rom : 126
en_rom : 1, addr_rom :  735, clka: 1, dout_rom : 194
en_rom : 1, addr_rom :  734, clka: 1, dout_rom : 192
en_rom : 1, addr_rom :  733, clka: 1, dout_rom : 146
en_rom : 1, addr_rom :  732, clka: 1, dout_rom : 225
en_rom : 1, addr_rom :  731, clka: 1, dout_rom :  30
en_rom : 1, addr_rom :  730, clka: 1, dout_rom : 254
en_rom : 1, addr_rom :  729, clka: 1, dout_rom :  39
en_rom : 1, addr_rom :  728, clka: 1, dout_rom : 172
en_rom : 1, addr_rom :  727, clka: 1, dout_rom : 101
en_rom : 1, addr_rom :  726, clka: 1, dout_rom : 214
en_rom : 1, addr_rom :  725, clka: 1, dout_rom :  48
en_rom : 1, addr_rom :  724, clka: 1, dout_rom : 136
en_rom : 1, addr_rom :  723, clka: 1, dout_rom : 234
en_rom : 1, addr_rom :  722, clka: 1, dout_rom : 203
en_rom : 1, addr_rom :  721, clka: 1, dout_rom : 210
en_rom : 1, addr_rom :  720, clka: 1, dout_rom : 129
en_rom : 1, addr_rom :  719, clka: 1, dout_rom : 254
en_rom : 1, addr_rom :  718, clka: 1, dout_rom : 226
en_rom : 1, addr_rom :  717, clka: 1, dout_rom : 154
en_rom : 1, addr_rom :  716, clka: 1, dout_rom : 113
en_rom : 1, addr_rom :  715, clka: 1, dout_rom : 136
en_rom : 1, addr_rom :  714, clka: 1, dout_rom : 159
en_rom : 1, addr_rom :  713, clka: 1, dout_rom :  60
en_rom : 1, addr_rom :  712, clka: 1, dout_rom : 118
en_rom : 1, addr_rom :  711, clka: 1, dout_rom :   0
en_rom : 1, addr_rom :  710, clka: 1, dout_rom : 159
en_rom : 1, addr_rom :  709, clka: 1, dout_rom :  95
en_rom : 1, addr_rom :  708, clka: 1, dout_rom : 126
en_rom : 1, addr_rom :  707, clka: 1, dout_rom : 233
en_rom : 1, addr_rom :  706, clka: 1, dout_rom : 136
en_rom : 1, addr_rom :  705, clka: 1, dout_rom : 182
en_rom : 1, addr_rom :  704, clka: 1, dout_rom : 244
en_rom : 1, addr_rom :  703, clka: 1, dout_rom : 158
en_rom : 1, addr_rom :  702, clka: 1, dout_rom : 241
en_rom : 1, addr_rom :  701, clka: 1, dout_rom :  81
en_rom : 1, addr_rom :  700, clka: 1, dout_rom : 246
en_rom : 1, addr_rom :  699, clka: 1, dout_rom :  39
en_rom : 1, addr_rom :  698, clka: 1, dout_rom : 116
en_rom : 1, addr_rom :  697, clka: 1, dout_rom : 132
en_rom : 1, addr_rom :  696, clka: 1, dout_rom : 209
en_rom : 1, addr_rom :  695, clka: 1, dout_rom :  75
en_rom : 1, addr_rom :  694, clka: 1, dout_rom : 190
en_rom : 1, addr_rom :  693, clka: 1, dout_rom :  37
en_rom : 1, addr_rom :  692, clka: 1, dout_rom : 206
en_rom : 1, addr_rom :  691, clka: 1, dout_rom : 180
en_rom : 1, addr_rom :  690, clka: 1, dout_rom : 216
en_rom : 1, addr_rom :  689, clka: 1, dout_rom : 101
en_rom : 1, addr_rom :  688, clka: 1, dout_rom :  99
en_rom : 1, addr_rom :  687, clka: 1, dout_rom : 156
en_rom : 1, addr_rom :  686, clka: 1, dout_rom : 189
en_rom : 1, addr_rom :  685, clka: 1, dout_rom : 230
en_rom : 1, addr_rom :  684, clka: 1, dout_rom : 236
en_rom : 1, addr_rom :  683, clka: 1, dout_rom : 191
en_rom : 1, addr_rom :  682, clka: 1, dout_rom : 246
en_rom : 1, addr_rom :  681, clka: 1, dout_rom : 212
en_rom : 1, addr_rom :  680, clka: 1, dout_rom : 185
en_rom : 1, addr_rom :  679, clka: 1, dout_rom :  57
en_rom : 1, addr_rom :  678, clka: 1, dout_rom :  92
en_rom : 1, addr_rom :  677, clka: 1, dout_rom : 177
en_rom : 1, addr_rom :  676, clka: 1, dout_rom : 172
en_rom : 1, addr_rom :  675, clka: 1, dout_rom : 152
en_rom : 1, addr_rom :  674, clka: 1, dout_rom : 204
en_rom : 1, addr_rom :  673, clka: 1, dout_rom :  30
en_rom : 1, addr_rom :  672, clka: 1, dout_rom :  49
en_rom : 1, addr_rom :  671, clka: 1, dout_rom :  53
en_rom : 1, addr_rom :  670, clka: 1, dout_rom : 165
en_rom : 1, addr_rom :  669, clka: 1, dout_rom :  53
en_rom : 1, addr_rom :  668, clka: 1, dout_rom : 246
en_rom : 1, addr_rom :  667, clka: 1, dout_rom : 175
en_rom : 1, addr_rom :  666, clka: 1, dout_rom : 204
en_rom : 1, addr_rom :  665, clka: 1, dout_rom :  63
en_rom : 1, addr_rom :  664, clka: 1, dout_rom : 102
en_rom : 1, addr_rom :  663, clka: 1, dout_rom :   3
en_rom : 1, addr_rom :  662, clka: 1, dout_rom : 185
en_rom : 1, addr_rom :  661, clka: 1, dout_rom : 111
en_rom : 1, addr_rom :  660, clka: 1, dout_rom : 223
en_rom : 1, addr_rom :  659, clka: 1, dout_rom :  41
en_rom : 1, addr_rom :  658, clka: 1, dout_rom : 135
en_rom : 1, addr_rom :  657, clka: 1, dout_rom :  55
en_rom : 1, addr_rom :  656, clka: 1, dout_rom : 184
en_rom : 1, addr_rom :  655, clka: 1, dout_rom : 216
en_rom : 1, addr_rom :  654, clka: 1, dout_rom : 140
en_rom : 1, addr_rom :  653, clka: 1, dout_rom : 236
en_rom : 1, addr_rom :  652, clka: 1, dout_rom : 220
en_rom : 1, addr_rom :  651, clka: 1, dout_rom : 120
en_rom : 1, addr_rom :  650, clka: 1, dout_rom : 202
en_rom : 1, addr_rom :  649, clka: 1, dout_rom : 110
en_rom : 1, addr_rom :  648, clka: 1, dout_rom :  68
en_rom : 1, addr_rom :  647, clka: 1, dout_rom :  28
en_rom : 1, addr_rom :  646, clka: 1, dout_rom :  66
en_rom : 1, addr_rom :  645, clka: 1, dout_rom : 212
en_rom : 1, addr_rom :  644, clka: 1, dout_rom :  47
en_rom : 1, addr_rom :  643, clka: 1, dout_rom :   8
en_rom : 1, addr_rom :  642, clka: 1, dout_rom : 237
en_rom : 1, addr_rom :  641, clka: 1, dout_rom :  81
en_rom : 1, addr_rom :  640, clka: 1, dout_rom :  96
en_rom : 1, addr_rom :  639, clka: 1, dout_rom : 131
en_rom : 1, addr_rom :  638, clka: 1, dout_rom :   5
en_rom : 1, addr_rom :  637, clka: 1, dout_rom : 198
en_rom : 1, addr_rom :  636, clka: 1, dout_rom : 159
en_rom : 1, addr_rom :  635, clka: 1, dout_rom : 147
en_rom : 1, addr_rom :  634, clka: 1, dout_rom :  46
en_rom : 1, addr_rom :  633, clka: 1, dout_rom : 233
en_rom : 1, addr_rom :  632, clka: 1, dout_rom : 140
en_rom : 1, addr_rom :  631, clka: 1, dout_rom : 151
en_rom : 1, addr_rom :  630, clka: 1, dout_rom : 131
en_rom : 1, addr_rom :  629, clka: 1, dout_rom :   7
en_rom : 1, addr_rom :  628, clka: 1, dout_rom : 113
en_rom : 1, addr_rom :  627, clka: 1, dout_rom : 252
en_rom : 1, addr_rom :  626, clka: 1, dout_rom : 183
en_rom : 1, addr_rom :  625, clka: 1, dout_rom : 216
en_rom : 1, addr_rom :  624, clka: 1, dout_rom : 230
en_rom : 1, addr_rom :  623, clka: 1, dout_rom : 131
en_rom : 1, addr_rom :  622, clka: 1, dout_rom : 251
en_rom : 1, addr_rom :  621, clka: 1, dout_rom : 113
en_rom : 1, addr_rom :  620, clka: 1, dout_rom : 187
en_rom : 1, addr_rom :  619, clka: 1, dout_rom : 205
en_rom : 1, addr_rom :  618, clka: 1, dout_rom : 249
en_rom : 1, addr_rom :  617, clka: 1, dout_rom : 224
en_rom : 1, addr_rom :  616, clka: 1, dout_rom : 117
en_rom : 1, addr_rom :  615, clka: 1, dout_rom : 225
en_rom : 1, addr_rom :  614, clka: 1, dout_rom : 102
en_rom : 1, addr_rom :  613, clka: 1, dout_rom :  63
en_rom : 1, addr_rom :  612, clka: 1, dout_rom :  41
en_rom : 1, addr_rom :  611, clka: 1, dout_rom : 251
en_rom : 1, addr_rom :  610, clka: 1, dout_rom :  75
en_rom : 1, addr_rom :  609, clka: 1, dout_rom :   2
en_rom : 1, addr_rom :  608, clka: 1, dout_rom : 173
en_rom : 1, addr_rom :  607, clka: 1, dout_rom :  69
en_rom : 1, addr_rom :  606, clka: 1, dout_rom : 119
en_rom : 1, addr_rom :  605, clka: 1, dout_rom : 102
en_rom : 1, addr_rom :  604, clka: 1, dout_rom :  81
en_rom : 1, addr_rom :  603, clka: 1, dout_rom :  92
en_rom : 1, addr_rom :  602, clka: 1, dout_rom : 236
en_rom : 1, addr_rom :  601, clka: 1, dout_rom : 242
en_rom : 1, addr_rom :  600, clka: 1, dout_rom :  59
en_rom : 1, addr_rom :  599, clka: 1, dout_rom :  62
en_rom : 1, addr_rom :  598, clka: 1, dout_rom : 138
en_rom : 1, addr_rom :  597, clka: 1, dout_rom :  94
en_rom : 1, addr_rom :  596, clka: 1, dout_rom : 169
en_rom : 1, addr_rom :  595, clka: 1, dout_rom :   3
en_rom : 1, addr_rom :  594, clka: 1, dout_rom : 203
en_rom : 1, addr_rom :  593, clka: 1, dout_rom : 189
en_rom : 1, addr_rom :  592, clka: 1, dout_rom : 115
en_rom : 1, addr_rom :  591, clka: 1, dout_rom : 144
en_rom : 1, addr_rom :  590, clka: 1, dout_rom : 144
en_rom : 1, addr_rom :  589, clka: 1, dout_rom :  62
en_rom : 1, addr_rom :  588, clka: 1, dout_rom :  72
en_rom : 1, addr_rom :  587, clka: 1, dout_rom : 180
en_rom : 1, addr_rom :  586, clka: 1, dout_rom : 188
en_rom : 1, addr_rom :  585, clka: 1, dout_rom : 227
en_rom : 1, addr_rom :  584, clka: 1, dout_rom : 126
en_rom : 1, addr_rom :  583, clka: 1, dout_rom : 197
en_rom : 1, addr_rom :  582, clka: 1, dout_rom : 136
en_rom : 1, addr_rom :  581, clka: 1, dout_rom :  95
en_rom : 1, addr_rom :  580, clka: 1, dout_rom : 238
en_rom : 1, addr_rom :  579, clka: 1, dout_rom :  28
en_rom : 1, addr_rom :  578, clka: 1, dout_rom : 150
en_rom : 1, addr_rom :  577, clka: 1, dout_rom :  13
en_rom : 1, addr_rom :  576, clka: 1, dout_rom :  70
en_rom : 1, addr_rom :  575, clka: 1, dout_rom : 230
en_rom : 1, addr_rom :  574, clka: 1, dout_rom :   3
en_rom : 1, addr_rom :  573, clka: 1, dout_rom : 195
en_rom : 1, addr_rom :  572, clka: 1, dout_rom : 114
en_rom : 1, addr_rom :  571, clka: 1, dout_rom : 230
en_rom : 1, addr_rom :  570, clka: 1, dout_rom :   9
en_rom : 1, addr_rom :  569, clka: 1, dout_rom : 120
en_rom : 1, addr_rom :  568, clka: 1, dout_rom : 149
en_rom : 1, addr_rom :  567, clka: 1, dout_rom : 165
en_rom : 1, addr_rom :  566, clka: 1, dout_rom : 128
en_rom : 1, addr_rom :  565, clka: 1, dout_rom :   7
